Chapter 7 Describing and Estimating Migration Age Structures | Tools for Estimating, Measuring and Working with Migration Data in R
…
7.2.5 Model migration age schedules

The rc_model_un are the set of fundamental parameters proposed in United Nations Department of Economic and Social Affairs Population Division (1992) for estimating age-specific migration flows in different contexts

rc_model_un

## # A tibble: 84 x 5
##    schedule         schedule_abb sex   param     value
##    <chr>            <chr>        <chr> <chr>     <dbl>
##  1 Western standard ws           male  a1       0.0215
##  2 Western standard ws           male  alpha1   0.105 
##  3 Western standard ws           male  a2       0.0694
##  4 Western standard ws           male  alpha2   0.112 
##  5 Western standard ws           male  mu2     20.0   
##  6 Western standard ws           male  lambda2  0.391 
##  7 Western standard ws           male  c        0.0028
##  8 Low dependency   ld           male  a1       0.0128
##  9 Low dependency   ld           male  alpha1   0.105 
## 10 Low dependency   ld           male  a2       0.0804
## # ... with 74 more rows
…
7.2.7 Model migration age schedules

# first row parameters
d$p[[1]]

##      a1  alpha1      a2  alpha2     mu2 lambda2       c 
##  0.0215  0.1050  0.0694  0.1120 20.0400  0.3910  0.0028

# data unnested
d %>%
  select(-rc_param, -p) %>%
  unnest(c(mx, age))

## # A tibble: 960 x 4
##    schedule         sex       mx   age
##    <chr>            <chr>  <dbl> <int>
##  1 Western standard male  0.0222     1
##  2 Western standard male  0.0202     2
##  3 Western standard male  0.0185     3
##  4 Western standard male  0.0169     4
##  5 Western standard male  0.0155     5
##  6 Western standard male  0.0143     6
##  7 Western standard male  0.0131     7
##  8 Western standard male  0.0121     8
##  9 Western standard male  0.0112     9
## 10 Western standard male  0.0103    10
## # ... with 950 more rows
…
7.5.5 Kernal smoothing

The ksmooth function is unlikely to smooth a migration age schedule as the default bandwidth parameter is too small

Increase for a more suitable fit

b <- b %>% 
  mutate(
    k_default = ksmooth(x = age, y = mi, n.points = n())$y,
    k_bw5 = ksmooth(x = age, y = mi, n.points = n(), bandwidth = 5)$y,
    k_bw10 = ksmooth(x = age, y = mi, n.points = n(), bandwidth = 10)$y
  )
b

## # A tibble: 95 x 8
##    sample    age migrants population     mi k_default  k_bw5 k_bw10
##    <chr>   <dbl>    <dbl>      <dbl>  <dbl>     <dbl>  <dbl>  <dbl>
##  1 BRA2000     6  355723.   3311728. 0.107     0.107  0.104  0.100 
##  2 BRA2000     7  343852.   3307567. 0.104     0.104  0.102  0.0990
##  3 BRA2000     8  327166.   3258046. 0.100     0.100  0.101  0.0983
##  4 BRA2000     9  314905.   3272305. 0.0962    0.0962 0.0986 0.0978
##  5 BRA2000    10  324066.   3345583. 0.0969    0.0969 0.0964 0.0976
##  6 BRA2000    11  329525.   3451739. 0.0955    0.0955 0.0949 0.0978
##  7 BRA2000    12  327113.   3518160. 0.0930    0.0930 0.0944 0.0975
##  8 BRA2000    13  323180.   3473133. 0.0931    0.0931 0.0942 0.0982
##  9 BRA2000    14  334783.   3566239. 0.0939    0.0939 0.0950 0.100 
## 10 BRA2000    15  337297.   3528845. 0.0956    0.0956 0.0973 0.103 
## # ... with 85 more rows
…
