Chapter 9 Estimating Bilateral Migration | Tools for Estimating, Measuring and Working with Migration Data in R
…
600

9.1.12 IPFP More Complicated Data Situations

The IPFP can be used for more complex data situations with more than two dimensions.

Key to using the mipfp() function is setting the inputs for target.data.

library(tidyverse)
d <- expand_grid(orig = r, dest = r, sex = c("Female", "Male")) %>%
  mutate(flow = c(0, 0, 80, 20, 10, 20, 55, 15, 30, 20, 0, 0, 20, 25, 0, 5, 50, 10, 15, 20, 0, 0, 10, 30, 5, 15, 20, 5, 10, 10, 0, 0))

d

## # A tibble: 32 x 4
##    orig  dest  sex     flow
##    <chr> <chr> <chr>  <dbl>
##  1 A     A     Female     0
##  2 A     A     Male       0
##  3 A     B     Female    80
##  4 A     B     Male      20
##  5 A     C     Female    10
##  6 A     C     Male      20
##  7 A     D     Female    55
##  8 A     D     Male      15
##  9 B     A     Female    30
## 10 B     A     Male      20
## # ... with 22 more rows
…
9.1.17 mipfp

y1$x.hat %>% 
  as.data.frame.table(responseName = "est") %>%
  as_tibble()

## # A tibble: 32 x 4
##    orig  dest  sex      est
##    <fct> <fct> <fct>  <dbl>
##  1 A     A     Female  0   
##  2 B     A     Female 29.4 
##  3 C     A     Female 36.7 
##  4 D     A     Female 14.2 
##  5 A     B     Female 82.3 
##  6 B     B     Female  0   
##  7 C     B     Female 11.0 
##  8 D     B     Female 57.1 
##  9 A     C     Female  3.89
## 10 B     C     Female  7.43
## # ... with 22 more rows
…
