Chapter 4 Handling Migration Data in R | Tools for Estimating, Measuring and Working with Migration Data in R
…
4.2.8 Convert to data frame

# convert array to tibble
d1 <- m1 %>%
  as.data.frame.table(responseName = "flow") %>%
  as_tibble()
d1

## # A tibble: 32 x 4
##    orig  dest  sex     flow
##    <fct> <fct> <fct>  <int>
##  1 A     A     female    71
##  2 B     A     female    53
##  3 C     A     female    72
##  4 D     A     female    63
##  5 A     B     female    21
##  6 B     B     female    90
##  7 C     B     female     6
##  8 D     B     female    31
##  9 A     C     female     2
## 10 B     C     female    33
## # ... with 22 more rows
…
4.4.2 Net flows and counterflows

d1 %>%
  group_by(sex) %>%
  counter()

## # A tibble: 24 x 8
## # Groups:   sex [2]
##    orig  dest  corridor pair  sex     flow counter_flow net_flow
##    <chr> <chr> <chr>    <chr> <fct>  <int>        <int>    <int>
##  1 B     A     B -> A   A - B female    53           21       32
##  2 C     A     C -> A   A - C female    72            2       70
##  3 D     A     D -> A   A - D female    63           18       45
##  4 A     B     A -> B   A - B female    21           53      -32
##  5 C     B     C -> B   B - C female     6           33      -27
##  6 D     B     D -> B   B - D female    31           61      -30
##  7 A     C     A -> C   A - C female     2           72      -70
##  8 B     C     B -> C   B - C female    33            6       27
##  9 D     C     D -> C   C - D female     8           44      -36
## 10 A     D     A -> D   A - D female    18           63      -45
## # ... with 14 more rows
…
4.4.5 Totals

The sum_turnover() function can be applied with to large data sets spanning multiple years (groups)

Demonstrate using international flow estimates of Abel and Cohen (2019)

# read data from web depository
f <- read_csv("https://ndownloader.figshare.com/files/26239945")
f

## # A tibble: 235,236 x 9
##    year0 orig  dest  sd_drop_neg sd_rev_neg mig_rate da_min_open da_min_closed
##    <dbl> <chr> <chr>       <dbl>      <dbl>    <dbl>       <dbl>         <dbl>
##  1  1990 BDI   BDI             0          0        0           0             0
##  2  1990 COM   BDI             0          0        0           0             0
##  3  1990 DJI   BDI             0          0        0           0             0
##  4  1990 ERI   BDI             0          0        0           0             0
##  5  1990 ETH   BDI             0          0        0           0             0
##  6  1990 KEN   BDI            30         30       69          45            29
##  7  1990 MDG   BDI             0          0        0           0             0
##  8  1990 MWI   BDI             0          0        0           0             0
##  9  1990 MUS   BDI             0          0        0           0             1
## 10  1990 MYT   BDI             0          0        0           0             0
## # ... with 235,226 more rows, and 1 more variable: da_pb_closed <dbl>

4.4.6 Totals

# single period
f %>% 
  filter(year0 == 1990) %>%
  sum_turnover(flow_col = "da_pb_closed", type = "international")

## # A tibble: 197 x 5
##    country     imm    emi    turn     net
##    <chr>     <dbl>  <dbl>   <dbl>   <dbl>
##  1 BDI       61630 381611  443241 -319981
##  2 COM        9009  12011   21020   -3002
##  3 DJI       10949  55945   66894  -44996
##  4 ERI       14633 329383  344016 -314750
##  5 ETH     1635513 177334 1812847 1458179
##  6 KEN      306517  84833  391350  221684
##  7 MDG        9706  19159   28865   -9453
##  8 MWI      112416 974278 1086694 -861862
##  9 MUS       16862  22475   39337   -5613
## 10 MYT       13763   3021   16784   10742
## # ... with 187 more rows

4.4.7 Totals

# all periods using group_by
f %>% 
  group_by(year0) %>%
  sum_turnover(flow_col = "da_pb_closed", type = "international") %>%
  arrange(country)

## Adding missing grouping variables: `year0`

## # A tibble: 1,188 x 6
## # Groups:   year0 [6]
##    year0 country     imm     emi    turn      net
##    <dbl> <chr>     <dbl>   <dbl>   <dbl>    <dbl>
##  1  1990 ABW       15874    1662   17536    14212
##  2  1995 ABW       10945    4007   14952     6938
##  3  2000 ABW       10064    3814   13878     6250
##  4  2005 ABW        7124    7544   14668     -420
##  5  2010 ABW        9910    8654   18564     1256
##  6  2015 ABW       17316   16306   33622     1010
##  7  1990 AFG     3421712  345255 3766967  3076457
##  8  1995 AFG      418906 1286436 1705342  -867530
##  9  2000 AFG     1178865  434706 1613571   744159
## 10  2005 AFG      457339 1500149 1957488 -1042810
## # ... with 1,178 more rows
…
Useful to reduce the number of corridors when plotting large data sets:

# add continental regions to the global flow data set
library(countrycode)
d <- f %>% 
  filter(year0 == 2015) %>%
  mutate(
    orig_reg = 
      countrycode(sourcevar = orig, origin = "iso3c", dest = "un.region.name"),
    dest_reg = 
      countrycode(sourcevar = dest, origin = "iso3c", dest = "un.region.name")) %>%
  relocate(contains("orig"), contains("dest"))
d

## # A tibble: 40,000 x 11
##    orig  orig_reg dest  dest_reg year0 sd_drop_neg sd_rev_neg mig_rate
##    <chr> <chr>    <chr> <chr>    <dbl>       <dbl>      <dbl>    <dbl>
##  1 BDI   Africa   BDI   Africa    2015           0          0        0
##  2 COM   Africa   BDI   Africa    2015           0          0        0
##  3 DJI   Africa   BDI   Africa    2015           0          0        0
##  4 ERI   Africa   BDI   Africa    2015           0        131        0
##  5 ETH   Africa   BDI   Africa    2015           0         14        0
##  6 KEN   Africa   BDI   Africa    2015         194        194      211
##  7 MDG   Africa   BDI   Africa    2015           0          0        0
##  8 MWI   Africa   BDI   Africa    2015           0          0        0
##  9 MUS   Africa   BDI   Africa    2015           0          0        0
## 10 MYT   Africa   BDI   Africa    2015           0          0        0
## # ... with 39,990 more rows, and 3 more variables: da_min_open <dbl>,
## #   da_min_closed <dbl>, da_pb_closed <dbl>

4.4.11 Rest of categroies

Apply the sum_lump() function to lump together smaller flows (less than 100,000) within and between continents.

d %>%
  group_by(orig_reg, dest_reg) %>%
  sum_lump(threshold = 1e5, flow_col = "da_pb_closed")

## # A tibble: 221 x 5
## # Groups:   orig_reg, dest_reg [36]
##    orig_reg dest_reg orig  dest     flow
##    <chr>    <chr>    <chr> <chr>   <dbl>
##  1 Africa   Africa   BFA   CIV    329531
##  2 Africa   Africa   CAF   COD    163440
##  3 Africa   Africa   CIV   BFA    260320
##  4 Africa   Africa   CIV   MLI    107902
##  5 Africa   Africa   COD   UGA    111439
##  6 Africa   Africa   MLI   CIV    138475
##  7 Africa   Africa   MOZ   ZAF    112554
##  8 Africa   Africa   other other 5091888
##  9 Africa   Africa   SDN   SSD    380532
## 10 Africa   Africa   SDN   TCD    121964
## # ... with 211 more rows
…
