Chapter 10 IPFP | Tools for Estimating, Measuring and Working with Migration Data in R
…
10.1.8 Three dimensions

10.1.9 IPFP More Complicated Data Situations

The IPFP can be used for more complex data situations with more than two dimensions.

Key to using the mipfp() function is setting the inputs for target.data.

library(tidyverse)
d <- expand_grid(orig = r, dest = r, skill = c("Low", "High")) %>%
  mutate(flow = c(0, 0, 80, 20, 10, 20, 55, 15, 30, 20, 0, 0, 20, 25, 0, 5, 50, 10, 15, 20, 0, 0, 10, 30, 5, 15, 20, 5, 10, 10, 0, 0))

d

## # A tibble: 32 x 4
##    orig  dest  skill  flow
##    <chr> <chr> <chr> <dbl>
##  1 A     A     Low       0
##  2 A     A     High      0
##  3 A     B     Low      80
##  4 A     B     High     20
##  5 A     C     Low      10
##  6 A     C     High     20
##  7 A     D     Low      55
##  8 A     D     High     15
##  9 B     A     Low      30
## 10 B     A     High     20
## # ... with 22 more rows
…
##      dest
## orig           A          B          C          D        Sum
##   A     0.000000 102.870462  11.670241 135.459297 250.000000
##   B    49.027781   0.000000  16.726856   9.245364  75.000000
##   C    43.984334  25.720327   0.000000  55.295339 125.000000
##   D    56.987886  71.409211  21.602903   0.000000 150.000000
##   Sum 150.000000 200.000000  50.000000 200.000000 600.000000

10.1.15 mipfp

y1$x.hat %>% 
  as.data.frame.table(responseName = "est") %>%
  as_tibble()

## # A tibble: 32 x 4
##    orig  dest  skill   est
##    <fct> <fct> <fct> <dbl>
##  1 A     A     High   0   
##  2 B     A     High  19.6 
##  3 C     A     High   7.33
##  4 D     A     High  42.7 
##  5 A     B     High  20.6 
##  6 B     B     High   0   
##  7 C     B     High  14.7 
##  8 D     B     High  14.3 
##  9 A     C     High   7.78
## 10 B     C     High   9.29
## # ... with 22 more rows
…
