Chapter 11 Sankey Plots for Visualising Bilateral Migration | Tools for Estimating, Measuring and Working with Migration Data in R
…
Add blocks at the end of the ribbons to allow for clear identification of origin and destinations using geom_parallel_sets_axes()

Add labels at the start and end of the ribbons using geom_parallel_sets_axes()

11.2 Data Format

11.2.1 UN international migrant stock data 2020

United Nations Department of Economic and Social Affairs Population Division (2020) stock data as before

library(tidyverse)
un <- read_csv(file = "data/un_desa_ims_tidy.csv")
un

## # A tibble: 259,357 x 6
##     year     stock por_name por_code pob_name           pob_code
##    <dbl>     <dbl> <chr>       <dbl> <chr>                 <dbl>
##  1  1990 152986157 WORLD         900 WORLD                   900
##  2  1995 161289976 WORLD         900 WORLD                   900
##  3  2000 173230585 WORLD         900 WORLD                   900
##  4  2005 191446828 WORLD         900 WORLD                   900
##  5  2010 220983187 WORLD         900 WORLD                   900
##  6  2015 247958644 WORLD         900 WORLD                   900
##  7  2020 280598105 WORLD         900 WORLD                   900
##  8  1990  15334807 WORLD         900 Sub-Saharan Africa      947
##  9  1995  16488973 WORLD         900 Sub-Saharan Africa      947
## 10  2000  15638014 WORLD         900 Sub-Saharan Africa      947
## # ... with 259,347 more rows
…
11.2.3 Data format

Format data for Sankey plot using gather_set_data() function in ggforce

library(ggforce)

s <- d %>%
  select(orig, dest, stock) %>%
  gather_set_data(x = 1:2)
s

## # A tibble: 32 x 6
##    orig                          dest            stock    id x     y            
##    <chr>                         <chr>           <dbl> <int> <chr> <chr>        
##  1 High-income countries         High-income c~ 45.8       1 orig  High-income ~
##  2 Upper-middle-income countries High-income c~ 59.9       2 orig  Upper-middle~
##  3 Lower-middle-income countries High-income c~ 58.0       3 orig  Lower-middle~
##  4 Low-income countries          High-income c~ 10.5       4 orig  Low-income c~
##  5 High-income countries         Upper-middle-~  5.66      5 orig  High-income ~
##  6 Upper-middle-income countries Upper-middle-~ 20.6       6 orig  Upper-middle~
##  7 Lower-middle-income countries Upper-middle-~ 18.3       7 orig  Lower-middle~
##  8 Low-income countries          Upper-middle-~ 10.8       8 orig  Low-income c~
##  9 High-income countries         Lower-middle-~  0.961     9 orig  High-income ~
## 10 Upper-middle-income countries Lower-middle-~  6.45     10 orig  Upper-middle~
## # ... with 22 more rows
…
levels(s$y)

## NULL

s <- s %>%
  mutate(y = str_remove(string = y, pattern = "-income countries"),
         y = fct_inorder(y))
levels(s$y)

## [1] "High"         "Upper-middle" "Lower-middle" "Low"

s

## # A tibble: 32 x 6
##    orig                          dest                 stock    id x     y       
##    <chr>                         <chr>                <dbl> <int> <fct> <fct>   
##  1 High-income countries         High-income countr~ 45.8       1 orig  High    
##  2 Upper-middle-income countries High-income countr~ 59.9       2 orig  Upper-m~
##  3 Lower-middle-income countries High-income countr~ 58.0       3 orig  Lower-m~
##  4 Low-income countries          High-income countr~ 10.5       4 orig  Low     
##  5 High-income countries         Upper-middle-incom~  5.66      5 orig  High    
##  6 Upper-middle-income countries Upper-middle-incom~ 20.6       6 orig  Upper-m~
##  7 Lower-middle-income countries Upper-middle-incom~ 18.3       7 orig  Lower-m~
##  8 Low-income countries          Upper-middle-incom~ 10.8       8 orig  Low     
##  9 High-income countries         Lower-middle-incom~  0.961     9 orig  High    
## 10 Upper-middle-income countries Lower-middle-incom~  6.45     10 orig  Upper-m~
## # ... with 22 more rows
…
