Chapter 5 Summary Migration Indices | Tools for Estimating, Measuring and Working with Migration Data in R
…
Higher the value of \(k\), greater the intensity of migration

5.2.4 Migration intensity

The index_intensity() function in the migest package calculates both intensity measures, given a migration and population data

The migest package also contains a data set on Korean internal migration and populations of first level administrative districts

Data originally downloaded from https://kosis.kr/eng

library(tidyverse)
library(migest)
korea_reg

## # A tibble: 2,601 x 4
##    orig  dest         year    flow
##    <fct> <fct>       <int>   <int>
##  1 Seoul Seoul        2012 1069300
##  2 Seoul Busan        2012   21437
##  3 Seoul Daegu        2012   13838
##  4 Seoul Incheon      2012   32216
##  5 Seoul Gwangju      2012   11811
##  6 Seoul Daejeon      2012   14570
##  7 Seoul Ulsan        2012    6799
##  8 Seoul Sejong       2012    1015
##  9 Seoul Gyeonggi-do  2012  254175
## 10 Seoul Gangwon-do   2012   21324
## # ... with 2,591 more rows

5.2.5 Migration intensity

The korea_pop contains the resident population in each region and year

korea_pop

## # A tibble: 153 x 3
##    region  year population
##    <chr>  <int>      <dbl>
##  1 Seoul   2012   10195318
##  2 Seoul   2013   10143645
##  3 Seoul   2014   10103233
##  4 Seoul   2015   10022181
##  5 Seoul   2016    9930616
##  6 Seoul   2017    9857426
##  7 Seoul   2018    9765623
##  8 Seoul   2019    9729107
##  9 Seoul   2020    9668465
## 10 Busan   2012    3538484
## # ... with 143 more rows
…
