Chapter 10 Chord Diagrams for Visualising Bilateral Migration | Tools for Estimating, Measuring and Working with Migration Data in R
…
The circlize R package by Gu et al. (2014) is perhaps the most complete and accessible for non-genomic data

Built on base R graphics package

Includes a chordDiagram() function

Extensive documentation of the chordDiagram() function in Chapters 13-15 of the circlize book.

10.3.2 UN international migrant stock data 2020

library(tidyverse)
un <- read_csv(file = "data/un_desa_ims_tidy.csv")
un

## # A tibble: 259,357 x 6
##     year     stock por_name por_code pob_name           pob_code
##    <dbl>     <dbl> <chr>       <dbl> <chr>                 <dbl>
##  1  1990 152986157 WORLD         900 WORLD                   900
##  2  1995 161289976 WORLD         900 WORLD                   900
##  3  2000 173230585 WORLD         900 WORLD                   900
##  4  2005 191446828 WORLD         900 WORLD                   900
##  5  2010 220983187 WORLD         900 WORLD                   900
##  6  2015 247958644 WORLD         900 WORLD                   900
##  7  2020 280598105 WORLD         900 WORLD                   900
##  8  1990  15334807 WORLD         900 Sub-Saharan Africa      947
##  9  1995  16488973 WORLD         900 Sub-Saharan Africa      947
## 10  2000  15638014 WORLD         900 Sub-Saharan Africa      947
## # ... with 259,347 more rows

10.3.3 UN international migrant stock data 2020

Use continent to continent flows in 2020

# codes for contents
cc <- c(903, 935, 908, 904, 905, 909)
d <- un %>%
  filter(por_code %in% cc, 
         pob_code %in% cc,
         year == 2020)
d

## # A tibble: 36 x 6
##     year    stock por_name por_code pob_name                        pob_code
##    <dbl>    <dbl> <chr>       <dbl> <chr>                              <dbl>
##  1  2020 20917565 AFRICA        903 AFRICA                               903
##  2  2020  1207631 AFRICA        903 ASIA                                 935
##  3  2020   648455 AFRICA        903 EUROPE                               908
##  4  2020    32524 AFRICA        903 LATIN AMERICA AND THE CARIBBEAN      904
##  5  2020    53563 AFRICA        903 NORTHERN AMERICA                     905
##  6  2020    14483 AFRICA        903 OCEANIA                              909
##  7  2020  4720103 ASIA          935 AFRICA                               903
##  8  2020 68497762 ASIA          935 ASIA                                 935
##  9  2020  7169630 ASIA          935 EUROPE                               908
## 10  2020   414658 ASIA          935 LATIN AMERICA AND THE CARIBBEAN      904
## # ... with 26 more rows

10.3.4 UN international migrant stock data 2020

Remove within continent stocks (will dominate the plot) and focus on inter-continent migrants

d <- d %>%
  rename(orig = pob_name,
         dest = por_name) %>%
  filter(orig != dest) %>%
  select(-contains("code"))
d

## # A tibble: 30 x 4
##     year   stock dest   orig                           
##    <dbl>   <dbl> <chr>  <chr>                          
##  1  2020 1207631 AFRICA ASIA                           
##  2  2020  648455 AFRICA EUROPE                         
##  3  2020   32524 AFRICA LATIN AMERICA AND THE CARIBBEAN
##  4  2020   53563 AFRICA NORTHERN AMERICA               
##  5  2020   14483 AFRICA OCEANIA                        
##  6  2020 4720103 ASIA   AFRICA                         
##  7  2020 7169630 ASIA   EUROPE                         
##  8  2020  414658 ASIA   LATIN AMERICA AND THE CARIBBEAN
##  9  2020  538199 ASIA   NORTHERN AMERICA               
## 10  2020  101725 ASIA   OCEANIA                        
## # ... with 20 more rows
…
10.3.6 Default chordDiagram()

Move the orig, dest and stock columns to the left of the data frame using the relocate() function in the dplyr package

d <- relocate(d, orig, dest, stock)
d

## # A tibble: 30 x 4
##    orig                            dest     stock  year
##    <chr>                           <chr>    <dbl> <dbl>
##  1 ASIA                            AFRICA 1207631  2020
##  2 EUROPE                          AFRICA  648455  2020
##  3 LATIN AMERICA AND THE CARIBBEAN AFRICA   32524  2020
##  4 NORTHERN AMERICA                AFRICA   53563  2020
##  5 OCEANIA                         AFRICA   14483  2020
##  6 AFRICA                          ASIA   4720103  2020
##  7 EUROPE                          ASIA   7169630  2020
##  8 LATIN AMERICA AND THE CARIBBEAN ASIA    414658  2020
##  9 NORTHERN AMERICA                ASIA    538199  2020
## 10 OCEANIA                         ASIA    101725  2020
## # ... with 20 more rows
…
10.3.7 Default chordDiagram()

Avoid chord link ends with unequal widths at each base by using only one numeric column in d

d <- select(d, orig, dest, stock)
d

## # A tibble: 30 x 3
##    orig                            dest     stock
##    <chr>                           <chr>    <dbl>
##  1 ASIA                            AFRICA 1207631
##  2 EUROPE                          AFRICA  648455
##  3 LATIN AMERICA AND THE CARIBBEAN AFRICA   32524
##  4 NORTHERN AMERICA                AFRICA   53563
##  5 OCEANIA                         AFRICA   14483
##  6 AFRICA                          ASIA   4720103
##  7 EUROPE                          ASIA   7169630
##  8 LATIN AMERICA AND THE CARIBBEAN ASIA    414658
##  9 NORTHERN AMERICA                ASIA    538199
## 10 OCEANIA                         ASIA    101725
## # ... with 20 more rows
…
10.4 Sectors

10.4.1 Sector Axis

Edit the bilateral counts to a sensible scale to ensure the axis labels are legible.

d <- mutate(d, stock = stock/1e6)
d

## # A tibble: 30 x 3
##    orig                            dest    stock
##    <chr>                           <chr>   <dbl>
##  1 ASIA                            AFRICA 1.21  
##  2 EUROPE                          AFRICA 0.648 
##  3 LATIN AMERICA AND THE CARIBBEAN AFRICA 0.0325
##  4 NORTHERN AMERICA                AFRICA 0.0536
##  5 OCEANIA                         AFRICA 0.0145
##  6 AFRICA                          ASIA   4.72  
##  7 EUROPE                          ASIA   7.17  
##  8 LATIN AMERICA AND THE CARIBBEAN ASIA   0.415 
##  9 NORTHERN AMERICA                ASIA   0.538 
## 10 OCEANIA                         ASIA   0.102 
## # ... with 20 more rows
…
Chord colours follow the origin sector. We can specify different colours using

col corresponding to links (bilateral migration data)

link.visible will hide particular chords

d <- d %>%
  # highlight Asia to Europe flows
  mutate(link_col1 = ifelse(test = orig == "ASIA" & dest == "EUROPE",
                            yes = "black", no = "grey"),
         # show only flows out or into Asia
         show_link = orig == "ASIA" | dest == "ASIA")
d

## # A tibble: 30 x 5
##    orig                            dest    stock link_col1 show_link
##    <chr>                           <chr>   <dbl> <chr>     <lgl>    
##  1 ASIA                            AFRICA 1.21   grey      TRUE     
##  2 EUROPE                          AFRICA 0.648  grey      FALSE    
##  3 LATIN AMERICA AND THE CARIBBEAN AFRICA 0.0325 grey      FALSE    
##  4 NORTHERN AMERICA                AFRICA 0.0536 grey      FALSE    
##  5 OCEANIA                         AFRICA 0.0145 grey      FALSE    
##  6 AFRICA                          ASIA   4.72   grey      TRUE     
##  7 EUROPE                          ASIA   7.17   grey      TRUE     
##  8 LATIN AMERICA AND THE CARIBBEAN ASIA   0.415  grey      TRUE     
##  9 NORTHERN AMERICA                ASIA   0.538  grey      TRUE     
## 10 OCEANIA                         ASIA   0.102  grey      TRUE     
## # ... with 20 more rows
…
