Chapter 8 Describing Bilteral Migration Data | Tools for Estimating, Measuring and Working with Migration Data in R
…
Expand to multiple dimensions

Rectify bumpy age schedules

Replace reported age parameters (proportions) in the multiplicative component model with proportions from a more regular schedule.

Multiply the new age parameters with the existing total, origin, destination and interaction parameters to obtain new estimated flows.

8.1.9 Multiplicative Component Model

Italian data in migest package

italy_area

## # A tibble: 3,500 x 5
##    orig       dest        year age_grp  flow
##    <chr>      <chr>      <dbl> <fct>   <dbl>
##  1 North-West North-West  1970 0-4         0
##  2 North-East North-West  1970 0-4      2350
##  3 Center     North-West  1970 0-4      1687
##  4 South      North-West  1970 0-4      9697
##  5 Islands    North-West  1970 0-4      5139
##  6 North-West North-East  1970 0-4      2448
##  7 North-East North-East  1970 0-4         0
##  8 Center     North-East  1970 0-4      1063
##  9 South      North-East  1970 0-4      1560
## 10 Islands    North-East  1970 0-4       689
## # ... with 3,490 more rows
…
The family argument should be set to poisson() for a log-linear model

8.2.3 Log-Linear Models

Example with age-specific migration flows between Italian regions in 1970

d1 <- italy_area %>%
  filter(orig != dest, 
         year == 1970) %>%
  # rename so later output fits on slide
  rename(age = age_grp)
d1

## # A tibble: 400 x 5
##    orig       dest        year age    flow
##    <chr>      <chr>      <dbl> <fct> <dbl>
##  1 North-East North-West  1970 0-4    2350
##  2 Center     North-West  1970 0-4    1687
##  3 South      North-West  1970 0-4    9697
##  4 Islands    North-West  1970 0-4    5139
##  5 North-West North-East  1970 0-4    2448
##  6 Center     North-East  1970 0-4    1063
##  7 South      North-East  1970 0-4    1560
##  8 Islands    North-East  1970 0-4     689
##  9 North-West Center      1970 0-4    2097
## 10 North-East Center      1970 0-4    1183
## # ... with 390 more rows
…
