Chapter 6 Estimating Net Migration | Tools for Estimating, Measuring and Working with Migration Data in R
…
Not easy to accurately estimate age-specific death counts that align to period between censuses

6.2.2 Vital statsitics

The migest package has a net_vs() function to help obtain net migration estimates using vital statistics.

Demonstrate using the alabama_1970 data set in migest

Births are given in the under 10 age groups for pop_1960

library(tidyverse)
library(migest)
alabama_1970

## # A tibble: 68 x 6
##    age_1970 sex    race  pop_1960 pop_1970 us_census_sr
##    <fct>    <chr>  <chr>    <dbl>    <dbl>        <dbl>
##  1 0-4      female white   104556   100224        0.965
##  2 5-9      female white   119478   115269        0.956
##  3 10-14    female white   120463   121922        0.997
##  4 15-19    female white   114627   115128        1.01 
##  5 20-24    female white   113551   107480        0.998
##  6 25-29    female white    93665    87706        0.989
##  7 30-34    female white    76348    77285        0.996
##  8 35-39    female white    74278    75115        0.994
##  9 40-44    female white    79572    78924        0.989
## 10 45-49    female white    80719    78284        0.968
## # ... with 58 more rows
…
Where appropriate life tables are not available or not appropriate, survival ratios can be computed from census age distributions

A census survival ratio (CSR) is the ratio of the population aged \(x+n\) at a given census to the population aged \(x\) at the census \(n\) years earlier.

Computed for a nation as a whole assuming a closed population.

Adjust data for international migration before calculating CSR if international migration is a influential part of population change for a given area or group.

6.3.13 Age-specfic birthplace data

Example to derive the birthplace-age-specific survival ratios from the 1950 and 1960 census data, given in usa_1960

usa_1960

## # A tibble: 288 x 7
##    birthplace  race      sex    age_1950 age_1960 pop_1950 pop_1960
##    <fct>       <fct>     <fct>  <fct>    <fct>       <dbl>    <dbl>
##  1 New England white     male   0-4      10-14      465097   467291
##  2 New England white     female 0-4      10-14      445100   450248
##  3 New England non-white male   0-4      10-14        8419     8927
##  4 New England non-white female 0-4      10-14        8205     8896
##  5 New England white     male   5-9      15-19      378265   368524
##  6 New England white     female 5-9      15-19      361845   359141
##  7 New England non-white male   5-9      15-19        5421     5475
##  8 New England non-white female 5-9      15-19        5501     5977
##  9 New England white     male   10-19    20-29      606335   567349
## 10 New England white     female 10-19    20-29      591111   582993
## # ... with 278 more rows

6.3.14 Age-specfic birthplace data

Focus on white males for example later on

s <- usa_1960 %>%
  filter(sex == "male",
         race == "white") %>%
  mutate(sr = pop_1960/pop_1950) %>%
  select(-contains("pop"))
s

## # A tibble: 72 x 6
##    birthplace      race  sex   age_1950 age_1960    sr
##    <fct>           <fct> <fct> <fct>    <fct>    <dbl>
##  1 New England     white male  0-4      10-14    1.00 
##  2 New England     white male  5-9      15-19    0.974
##  3 New England     white male  10-19    20-29    0.936
##  4 New England     white male  20-29    30-39    1.00 
##  5 New England     white male  30-39    40-49    0.996
##  6 New England     white male  40-49    50-59    0.946
##  7 New England     white male  50-59    60-69    0.825
##  8 New England     white male  60+      70+      0.488
##  9 Middle Atlantic white male  0-4      10-14    1.01 
## 10 Middle Atlantic white male  5-9      15-19    0.975
## # ... with 62 more rows
…
Both rely on a survival approach

Survival ratios are calculated by birthplace (and possibly other factors)

If you view birthplace as just another dimension (such as sex) then the method is near identical to the survival ratio methods.

Can use the net_sr() function in migest once data is in correct format

6.4.2 Birthplace totals

To demonstrate arranging birthplace totals with no age dimension and the application of net_sv() we use the indian_sub data in the migest package.

indian_sub

## # A tibble: 164 x 7
##    zone             state      sex    year in_migrants out_migrants net_migrants
##    <chr>            <chr>      <chr> <int>       <dbl>        <dbl>        <dbl>
##  1 United Provinces United Pr~ male   1901      259836       878864      -619028
##  2 East Zone        East Zone  male   1901      883052       529216       353836
##  3 East Zone        Bihar-Ori~ male   1901      466126       498082       -31956
##  4 East Zone        Assam      male   1901      416926        31134       385792
##  5 Burma            Burma      male   1901      352924         4489       348435
##  6 South Zone       South Zone male   1901      347416       509163      -161747
##  7 South Zone       Madras     male   1901      115290       450068      -334778
##  8 South Zone       Travancor~ male   1901       42927         8515        34412
##  9 South Zone       Mysore     male   1901      189199        50580       138619
## 10 Bombay           Bombay     male   1901      311720       248149        63571
## # ... with 154 more rows
…
6.4.8 Age-specfic birthplace data

To demonstrate arranging age-specific birthplace data and the application of net_sv() we use the new_england_1960 data in the migest package.

New England population totals by birthplace for white males.

new_england_1960

## # A tibble: 72 x 4
##    birthplace         age_1960 pop_1950 pop_1960
##    <fct>              <fct>       <dbl>    <dbl>
##  1 New England        10-14      442577   417069
##  2 Middle Atlantic    10-14        7651    17077
##  3 East North Central 10-14        1831     4376
##  4 West North Central 10-14         719     1313
##  5 South Atlantic     10-14        3451     5578
##  6 East South Central 10-14         679      960
##  7 West South Central 10-14         830     1413
##  8 Mountain States    10-14         533      819
##  9 Pacific            10-14        1730     2687
## 10 New England        15-19      354131   314048
## # ... with 62 more rows

6.4.9 Age-specfic birthplace data

Apply the age-sex-race-birthplace specific census suruviorshp rate based on the US census (see previous CSR slide)

d <- new_england_1960 %>%
  left_join(s)

## Joining, by = c("birthplace", "age_1960")

d

## # A tibble: 72 x 8
##    birthplace         age_1960 pop_1950 pop_1960 race  sex   age_1950    sr
##    <fct>              <fct>       <dbl>    <dbl> <fct> <fct> <fct>    <dbl>
##  1 New England        10-14      442577   417069 white male  0-4      1.00 
##  2 Middle Atlantic    10-14        7651    17077 white male  0-4      1.01 
##  3 East North Central 10-14        1831     4376 white male  0-4      1.01 
##  4 West North Central 10-14         719     1313 white male  0-4      1.00 
##  5 South Atlantic     10-14        3451     5578 white male  0-4      1.01 
##  6 East South Central 10-14         679      960 white male  0-4      1.01 
##  7 West South Central 10-14         830     1413 white male  0-4      1.02 
##  8 Mountain States    10-14         533      819 white male  0-4      1.02 
##  9 Pacific            10-14        1730     2687 white male  0-4      1.01 
## 10 New England        15-19      354131   314048 white male  5-9      0.974
## # ... with 62 more rows

6.4.10 Age-specfic birthplace data

Use the national age-sex-race-birthplace CSR to estimate net migration by birthplace and age in New England for white males

d %>%
  net_sr(pop0_col = "pop_1950", pop1_col = "pop_1960") %>%
  relocate(contains("net"))

## # A tibble: 72 x 13
##    net_forward net_reverse net_average birthplace     age_1960 pop_1950 pop_1960
##          <dbl>       <dbl>       <dbl> <fct>          <fct>       <dbl>    <dbl>
##  1     -27596.     -27466.     -27531. New England    10-14      442577   417069
##  2       9333.       9222.       9278. Middle Atlant~ 10-14        7651    17077
##  3       2531.       2511.       2521. East North Ce~ 10-14        1831     4376
##  4        594.        593.        593. West North Ce~ 10-14         719     1313
##  5       2086.       2062.       2074. South Atlantic 10-14        3451     5578
##  6        271.        267.        269. East South Ce~ 10-14         679      960
##  7        567.        556.        562. West South Ce~ 10-14         830     1413
##  8        276.        270.        273. Mountain Stat~ 10-14         533      819
##  9        932.        918.        925. Pacific        10-14        1730     2687
## 10     -30963.     -31782.     -31373. New England    15-19      354131   314048
## # ... with 62 more rows, and 6 more variables: race <fct>, sex <fct>,
## #   age_1950 <fct>, sr <dbl>, pop1_forward <dbl>, pop0_reverse <dbl>
…
